<?xml version="1.0" encoding="UTF-8"?>
<svg id="Ebene_2" data-name="Ebene 2" xmlns="http://www.w3.org/2000/svg" xmlns:xlink="http://www.w3.org/1999/xlink" viewBox="0 0 46.06 42.54">
  <defs>
    <style>
      .cls-1 {
        stroke-miterlimit: 10;
        stroke-width: .92px;
      }

      .cls-1, .cls-2 {
        stroke: #313122;
      }

      .cls-1, .cls-2, .cls-3 {
        fill: none;
      }

      .cls-2 {
        stroke-linecap: round;
        stroke-linejoin: round;
        stroke-width: .39px;
      }

      .cls-4 {
        clip-path: url(#clippath);
      }
    </style>
    <clipPath id="clippath">
      <rect class="cls-3" width="46.06" height="42.54"/>
    </clipPath>
  </defs>
  <g id="Ebene_1-2" data-name="Ebene 1">
    <g class="cls-4">
      <path class="cls-2" d="m35.81,1.05l-.97-.56m8.58,5.88l-1.88-1.08,4.05,5.96L29.84,2.16l15.75,12.72L28.37,4.93l17.22,13.57-3.65-2.11,3.65,5.73-3.65-2.11,3.65,5.73-3.65-2.11,3.65,5.73-3.65-2.11,3.65,5.73-3.65-2.11,3.62,5.72-3.62-2.09,2.48,5.05-3.86-2.23,1.19,4.31-6.59-3.8,1.06,4.23-7.33-4.23,1.06,4.23-7.33-4.23,1.06,4.23-7.33-4.23,1.06,4.23-7.33-4.23,1.06,4.23L.47,35.93M41.72,15.06L24.18,4.93l11.27,10.13L17.89,4.92l11.28,10.13L9.85,3.9l13.04,11.15L5.51,5.02l11.1,10.03L2.23,6.75l8.11,8.3L.67,9.48l3.46,5.62L.47,12.98l3.66,5.74-3.66-2.11,3.66,5.74-3.66-2.11,3.66,5.74-3.66-2.11,3.66,5.74-3.66-2.11,3.65,5.73-3.65-2.11M15.83,1.05l-.97-.56"/>
      <path class="cls-1" d="m4.13,34.76c0,1.7,1.38,3.07,3.07,3.07h31.66c1.7,0,3.07-1.37,3.07-3.07V15.06H4.13v19.69ZM6.58,4.92h3.26v-2.79c0-.92.75-1.68,1.68-1.68h3.04c.93,0,1.68.75,1.68,1.68v2.79h13.6v-2.79c0-.92.75-1.68,1.67-1.68h3.03c.93,0,1.68.75,1.68,1.68v2.79h3.28c3.36,0,6.11,2.75,6.11,6.12v24.91c0,3.38-2.74,6.12-6.11,6.12H6.58c-3.38,0-6.12-2.75-6.12-6.12V11.04c0-3.38,2.75-6.12,6.12-6.12Z"/>
    </g>
  </g>
</svg>