<?xml version="1.0" encoding="UTF-8"?>
<svg id="Ebene_2" data-name="Ebene 2" xmlns="http://www.w3.org/2000/svg" viewBox="0 0 236.23 143.81">
  <defs>
    <style>
      .cls-1 {
        stroke-linecap: round;
        stroke-linejoin: round;
        stroke-width: 2px;
      }

      .cls-1, .cls-2 {
        fill: none;
        stroke: #313122;
      }

      .cls-2 {
        stroke-miterlimit: 10;
        stroke-width: 5px;
      }
    </style>
  </defs>
  <g id="Ebene_1-2" data-name="Ebene 1">
    <g>
      <path class="cls-2" d="m30.26,60.8c0-11.68,9.59-19.43,21.41-19.43h7.14c11.83,0,21.41,7.75,21.41,19.43v2.78"/>
      <path class="cls-2" d="m91.34,46.92c-8.79,9.48-22.21,33.31-22.21,33.31l44.42,44.42h11.1l61.07-44.42h48v-16.66c0-9.2-7.46-16.66-16.66-16.66,0,0-54.25-11.1-81.32-11.1s-35.92,1.94-44.42,11.1Z"/>
      <polyline class="cls-2" points="233.73 80.23 233.73 141.31 217.07 141.31 205.96 113.55 141.31 113.55"/>
      <polyline class="cls-2" points="102.44 113.55 30.26 113.55 19.16 141.31 2.5 141.31 2.5 2.5 30.26 2.5 30.26 80.23 69.13 80.23"/>
    </g>
    <g>
      <path class="cls-1" d="m182.39,82.77c.11.2,4.21-2.74,4.34-2.51,1.03,1.79-19.11,31.45-18.07,33.25,1.64,2.84,55.85-36.31,57.61-33.26,1.14,1.97-25.49,31.64-24.56,33.26.88,1.52,31.09-20.02,31.99-18.47.97,1.69-22.64,31.89-21.72,33.49.57.99,21.05-13.73,21.73-12.55.62,1.07-5.44,24.08-4.74,25.29.13.22,4.62-2.98,4.76-2.75"/>
      <g>
        <path class="cls-1" d="m31.23,113.53c1.4,2.42,43.71-28.47,45.11-26.04.72,1.24-11.09,24.92-10.44,26.03s22.5-14.43,23.13-13.35c.36.62,3.12,12.7,3.49,13.35.19.32,6.09-3.89,6.25-3.61"/>
        <path class="cls-1" d="m2.53,3.11s.98-.62,1-.58c.51.88-1.44,17.86-1,18.62.79,1.37,26.89-17.41,27.7-15.99C31.46,7.28,1.41,43.16,2.53,45.1c.85,1.47,26.87-17.45,27.71-16,1.15,1.99-28.78,36.07-27.71,37.92.72,1.25,26.93-17.37,27.72-16,1.26,2.19-28.81,35.35-27.72,37.24.82,1.42,26.87-17.49,27.73-16.01,1.32,2.29-28.82,37.88-27.73,39.77,1.56,2.7,53.39-34.59,55.02-31.77,1.78,3.09-56.85,47.45-55.02,50.61.71,1.23,26.28-16.85,27.01-15.59s-12.02,24.9-11.38,26c.04.07,1.26-.82,1.3-.75"/>
      </g>
    </g>
  </g>
</svg>